# Discretization File created on 3/13/2023 by ModelMuse version 5.0.0.0.
# Upper left corner: (0, 0)
# Lower left corner: (0, -30)
# Upper right corner: (10, 0)
# Lower right corner: (10, -30)
# Grid angle (in degrees counterclockwise): 0
     3    42    14     1     1     2 # NLAY, NROW, NCOL, NPER, ITMUNI, LENUNI
     0     0     0 # LAYCB
INTERNAL 1.0 (FREE)       12 # DELR
  1.000000000000E+000   1.000000000000E+000   1.000000000000E+000   5.000000000000E-001   5.000000000000E-001   5.000000000000E-001   5.000000000000E-001   5.000000000000E-001   5.000000000000E-001   5.000000000000E-001 
  5.000000000000E-001   1.000000000000E+000   1.000000000000E+000   1.000000000000E+000 
INTERNAL 1.0 (FREE)       12 # DELC
  1.000000000000E+000   1.000000000000E+000   1.000000000000E+000   1.000000000000E+000   1.000000000000E+000   1.000000000000E+000   1.000000000000E+000   1.000000000000E+000   1.000000000000E+000   5.000000000000E-001 
  5.000000000000E-001   5.000000000000E-001   5.000000000000E-001   5.000000000000E-001   5.000000000000E-001   5.000000000000E-001   5.000000000000E-001   5.000000000000E-001   5.000000000000E-001   5.000000000000E-001 
  5.000000000000E-001   5.000000000000E-001   5.000000000000E-001   5.000000000000E-001   5.000000000000E-001   5.000000000000E-001   5.000000000000E-001   5.000000000000E-001   5.000000000000E-001   5.000000000000E-001 
  5.000000000000E-001   5.000000000000E-001   5.000000000000E-001   1.000000000000E+000   1.000000000000E+000   1.000000000000E+000   1.000000000000E+000   1.000000000000E+000   1.000000000000E+000   1.000000000000E+000 
  1.000000000000E+000   1.000000000000E+000 
CONSTANT     0.000000000000E+000  # TOP
CONSTANT    -3.333333333333E+000  # BOTM, Aquifer Layer 1
CONSTANT    -6.666666666667E+000  # BOTM, Aquifer Layer 2
CONSTANT    -1.000000000000E+001  # BOTM, Aquifer Layer 3
  1.000000100000E+007      5  1.000000000000E+001  SS # PERLEN NSTP TSMULT Ss/tr (Stress period 1)
